Changing Variables
…
**Goal**: 

Create a new variable called `age_months` that represents `age` in months.

---

class: middle

```r
arthritis %>% 
  mutate(age_months = age*12)
```

```
## # A tibble: 530 × 15
##       id   age age_gp   sex yrs_from_dx  cdai cdai_yn das_28 das28_yn
##    <dbl> <dbl>  <dbl> <dbl>       <dbl> <dbl>   <dbl>  <dbl>    <dbl>
##  1     1    85      2     0          27  NA         1     NA        1
##  2     2    86      2     0          27  23         2     NA        1
##  3     3    83      2     0          10  14.5       2     NA        1
##  4     4    83      2     0           9  NA         1     NA        1
##  5     5    85      2     0          NA  NA         1     NA        1
##  6     6    79      2     1          NA  NA         1     NA        1
##  7     7    90      2     0          51  NA         1     NA        1
##  8     8    90      2     0          11  40         2     NA        1
##  9     9    87      2     0          36   6         2     NA        1
## 10    10    82      2     0           4  NA         1     NA        1
## # … with 520 more rows, and 6 more variables: steroids_gt_5 <dbl>,
## #   dmar_ds <dbl>, biologics <dbl>, s_dmards <dbl>, osteop_screen <dbl>,
## #   age_months <dbl>
```
…
high disease activity > 5.1

---

```r
arthritis %>% 
  mutate(das_level = case_when(
    das_28 < 2.6 ~ "remission", 
    das_28 >= 2.6 & das_28 <= 3.2 ~ "low disease activity",
    das_28 > 3.2 & das_28 <= 5.1 ~ "moderate disease activity",
    das_28 > 5.1 ~ "high disease activity")) 
```

```
## # A tibble: 530 × 15
##       id   age age_gp   sex yrs_from_dx  cdai cdai_yn das_28 das28_yn
##    <dbl> <dbl>  <dbl> <dbl>       <dbl> <dbl>   <dbl>  <dbl>    <dbl>
##  1     1    85      2     0          27  NA         1     NA        1
##  2     2    86      2     0          27  23         2     NA        1
##  3     3    83      2     0          10  14.5       2     NA        1
##  4     4    83      2     0           9  NA         1     NA        1
##  5     5    85      2     0          NA  NA         1     NA        1
##  6     6    79      2     1          NA  NA         1     NA        1
##  7     7    90      2     0          51  NA         1     NA        1
##  8     8    90      2     0          11  40         2     NA        1
##  9     9    87      2     0          36   6         2     NA        1
## 10    10    82      2     0           4  NA         1     NA        1
## # … with 520 more rows, and 6 more variables: steroids_gt_5 <dbl>,
## #   dmar_ds <dbl>, biologics <dbl>, s_dmards <dbl>, osteop_screen <dbl>,
## #   das_level <chr>
```
…
Change `das_28_yn` and `age_gp` to appropriate variable types. 

---

class: middle

```r
arthritis %>% 
  mutate(das28_yn = as.logical(das28_yn),
         age_gp = as.factor(age_gp)) 
```

```
## # A tibble: 530 × 14
##       id   age age_gp   sex yrs_from_dx  cdai cdai_yn das_28 das28_yn
##    <dbl> <dbl> <fct>  <dbl>       <dbl> <dbl>   <dbl>  <dbl> <lgl>   
##  1     1    85 2          0          27  NA         1     NA TRUE    
##  2     2    86 2          0          27  23         2     NA TRUE    
##  3     3    83 2          0          10  14.5       2     NA TRUE    
##  4     4    83 2          0           9  NA         1     NA TRUE    
##  5     5    85 2          0          NA  NA         1     NA TRUE    
##  6     6    79 2          1          NA  NA         1     NA TRUE    
##  7     7    90 2          0          51  NA         1     NA TRUE    
##  8     8    90 2          0          11  40         2     NA TRUE    
##  9     9    87 2          0          36   6         2     NA TRUE    
## 10    10    82 2          0           4  NA         1     NA TRUE    
## # … with 520 more rows, and 5 more variables: steroids_gt_5 <dbl>,
## #   dmar_ds <dbl>, biologics <dbl>, s_dmards <dbl>, osteop_screen <dbl>
```
…
## Word of caution

The functions `clean_names()`, and `mutate()` all take a data frame as the first argument. Even though we do not see it, the data frame is piped through from the previous step of code at each step. 
When we use these functions without the `%>%` we have to include the data frame explicitly.

.pull-left[
Data frame is used as the first argument

```r
clean_names(arthritis)
```

```
## # A tibble: 530 × 14
##       id   age age_gp   sex yrs_from_dx  cdai cdai_yn das_28 das28_yn
##    <dbl> <dbl>  <dbl> <dbl>       <dbl> <dbl>   <dbl>  <dbl>    <dbl>
##  1     1    85      2     0          27  NA         1     NA        1
##  2     2    86      2     0          27  23         2     NA        1
##  3     3    83      2     0          10  14.5       2     NA        1
##  4     4    83      2     0           9  NA         1     NA        1
##  5     5    85      2     0          NA  NA         1     NA        1
##  6     6    79      2     1          NA  NA         1     NA        1
##  7     7    90      2     0          51  NA         1     NA        1
##  8     8    90      2     0          11  40         2     NA        1
##  9     9    87      2     0          36   6         2     NA        1
## 10    10    82      2     0           4  NA         1     NA        1
## # … with 520 more rows, and 5 more variables: steroids_gt_5 <dbl>,
## #   dmar_ds <dbl>, biologics <dbl>, s_dmards <dbl>, osteop_screen <dbl>
```
]

.pull-right[
Data frame is piped

```r
arthritis %>% 
  clean_names()
```

```
## # A tibble: 530 × 14
##       id   age age_gp   sex yrs_from_dx  cdai cdai_yn das_28 das28_yn
##    <dbl> <dbl>  <dbl> <dbl>       <dbl> <dbl>   <dbl>  <dbl>    <dbl>
##  1     1    85      2     0          27  NA         1     NA        1
##  2     2    86      2     0          27  23         2     NA        1
##  3     3    83      2     0          10  14.5       2     NA        1
##  4     4    83      2     0           9  NA         1     NA        1
##  5     5    85      2     0          NA  NA         1     NA        1
##  6     6    79      2     1          NA  NA         1     NA        1
##  7     7    90      2     0          51  NA         1     NA        1
##  8     8    90      2     0          11  40         2     NA        1
##  9     9    87      2     0          36   6         2     NA        1
## 10    10    82      2     0           4  NA         1     NA        1
## # … with 520 more rows, and 5 more variables: steroids_gt_5 <dbl>,
## #   dmar_ds <dbl>, biologics <dbl>, s_dmards <dbl>, osteop_screen <dbl>
```
…
